Project 1
…
A full join keeps all rows from both datasets and inserts NAs where this is missing information, which is what we wanted since we did not want to lose any data. In this case, there are 12 rows in the combined dataset with NAs. These 12 datasets have NAs because there were no mass shootings in these 12 states.

3. Wrangling

both$State <- replace(both$State, both$State == "District of Columbia", 
    "Washington D.C.")
both$State <- as.character(both$State)
both$hurt <- as.integer(both$hurt)
both$guns.per.capita <- as.integer(both$guns.per.capita)
both$guns.registered <- as.integer(both$guns.registered)

both %>% select(State, guns.per.capita) %>% arrange(desc(guns.per.capita))

## # A tibble: 430 x 2
##    State           guns.per.capita
##    <chr>                     <int>
##  1 Wyoming                     229
##  2 Washington D.C.              68
##  3 New Mexico                   46
##  4 New Mexico                   46
##  5 New Mexico                   46
##  6 New Mexico                   46
##  7 New Mexico                   46
##  8 New Hampshire                46
##  9 Virginia                     36
## 10 Virginia                     36
## # … with 420 more rows

both %>% select(State, guns.registered) %>% arrange(desc(guns.registered))

## # A tibble: 430 x 2
##    State guns.registered
##    <chr>           <int>
##  1 Texas          588696
##  2 Texas          588696
##  3 Texas          588696
##  4 Texas          588696
##  5 Texas          588696
##  6 Texas          588696
##  7 Texas          588696
##  8 Texas          588696
##  9 Texas          588696
## 10 Texas          588696
## # … with 420 more rows

both %>% group_by(State) %>% summarize(n = n()) %>% arrange(desc(n))

## # A tibble: 51 x 2
##    State            n
##    <chr>        <int>
##  1 California      49
##  2 Illinois        41
##  3 Texas           31
##  4 Louisiana       26
##  5 Maryland        21
##  6 Georgia         19
##  7 Pennsylvania    19
##  8 Missouri        18
##  9 Florida         15
## 10 Ohio            14
## # … with 41 more rows

both %>% mutate(hurtpergun = (hurt)/guns.per.capita) %>% arrange(desc(hurtpergun))

## # A tibble: 430 x 10
##    Incident.Date State City.Or.County Address Operations  Rank guns.per.capita
##    <fct>         <chr> <fct>          <fct>   <fct>      <int>           <int>
##  1 27-Jul-19     New … Brooklyn       1555 L… N/A           51               3
##  2 28-Jul-19     Cali… Gilroy         7050 M… N/A           44               8
##  3 12-Oct-19     New … Brooklyn       75 Uti… N/A           51               3
##  4 3-Aug-19      Texas El Paso        7101 G… N/A           18              20
##  5 30-Jun-19     New … Bay Shore      Farrag… N/A           51               3
##  6 4-Aug-19      Ohio  Dayton         419 E … N/A           30              14
##  7 27-Nov-19     New … Bronx          E 153r… N/A           51               3
##  8 31-Aug-19     Texas Odessa         8250 T… N/A           18              20
##  9 10-Dec-19     New … Jersey City    223 Ma… N/A           46               6
## 10 29-Oct-19     Cali… Long Beach     2709 E… N/A           44               8
## # … with 420 more rows, and 3 more variables: guns.registered <int>,
## #   hurt <int>, hurtpergun <dbl>

both %>% filter(State == "Texas")

## # A tibble: 31 x 9
##    Incident.Date State City.Or.County Address Operations  Rank guns.per.capita
##    <fct>         <chr> <fct>          <fct>   <fct>      <int>           <int>
##  1 27-Dec-19     Texas Houston        500 bl… N/A           18              20
##  2 18-Dec-19     Texas San Antonio    2418 S… N/A           18              20
##  3 8-Dec-19      Texas Desoto         200 bl… N/A           18              20
##  4 29-Nov-19     Texas Amarillo       2650 D… N/A           18              20
##  5 4-Nov-19      Texas Houston        5000 b… N/A           18              20
##  6 3-Nov-19      Texas Nacogdoches    Sandyl… N/A           18              20
##  7 1-Nov-19      Texas San Angelo     1616 S… N/A           18              20
##  8 26-Oct-19     Texas Greenville     2275 U… N/A           18              20
##  9 20-Oct-19     Texas Port Arthur    1100 b… N/A           18              20
## 10 19-Oct-19     Texas El Paso        3812 T… N/A           18              20
## # … with 21 more rows, and 2 more variables: guns.registered <int>, hurt <int>
…
## # A tibble: 1 x 10
##   mean_gunsreg n_rows n_states   var  quant   min    max      sd   med   cor
##          <dbl>  <int>    <int> <dbl>  <dbl> <int>  <int>   <dbl> <dbl> <dbl>
## 1      190084.    430       51  178. 236377  4852 588696 148051.     4 0.156

both %>% group_by(State) %>% summarize(mean_gunsreg = mean(guns.registered, 
    na.rm = T), n_rows = n(), n_states = n_distinct(State), var = var(guns.per.capita, 
    na.rm = T), quant = quantile(guns.registered, na.rm = T, 
    0.75), min = min(guns.registered, na.rm = T), max = max(guns.registered, 
    na.rm = T), sd = sd(guns.registered, na.rm = T), sum = sum(hurt, 
    na.rm = T), cor = cor(hurt, guns.per.capita, use = "pair"))

## # A tibble: 51 x 11
##    State mean_gunsreg n_rows n_states   var  quant    min    max    sd   sum
##    <chr>        <dbl>  <int>    <int> <dbl>  <dbl>  <int>  <int> <dbl> <int>
##  1 Alab…       161641     12        1     0 161641 161641 161641     0    64
##  2 Alas…        15824      1        1    NA  15824  15824  15824    NA     0
##  3 Ariz…       179738      6        1     0 179738 179738 179738     0    33
##  4 Arka…        79841      5        1     0  79841  79841  79841     0    23
##  5 Cali…       344622     49        1     0 344622 344622 344622     0   258
##  6 Colo…        92435      4        1     0  92435  92435  92435     0    22
##  7 Conn…        82400      3        1     0  82400  82400  82400     0    13
##  8 Dela…         4852      2        1     0   4852   4852   4852     0    10
##  9 Flor…       343288     15        1     0 343288 343288 343288     0    74
## 10 Geor…       190050     19        1     0 190050 190050 190050     0    90
## # … with 41 more rows, and 1 more variable: cor <dbl>
…
